name: Demo
description: ''
endpoints:
  -
    custom: []
    httpMethods:
      - GET
    uri: api/v1/demos
    metadata:
      custom: []
      groupName: Demo
      groupDescription: ''
      subgroup: ''
      subgroupDescription: ''
      title: 'Danh sách demo'
      description: |-
        Trả về danh sách demo có phân trang. Hỗ trợ lọc theo tiêu đề và trạng thái,
        sắp xếp, load relationship và phân trang linh hoạt.
      authenticated: true
      deprecated: false
    headers:
      Authorization: 'Bearer {YOUR_AUTH_KEY}'
      Content-Type: application/json
      Accept: application/json
    urlParameters: []
    cleanUrlParameters: []
    queryParameters:
      'filter[title]':
        custom: []
        name: 'filter[title]'
        description: 'Lọc theo tiêu đề (tìm kiếm gần đúng).'
        required: false
        example: Hello
        type: string
        enumValues: []
        exampleWasSpecified: true
        nullable: false
        deprecated: false
      'filter[status]':
        custom: []
        name: 'filter[status]'
        description: 'Lọc theo trạng thái: draft, published, archived.'
        required: false
        example: published
        type: string
        enumValues: []
        exampleWasSpecified: true
        nullable: false
        deprecated: false
      sort:
        custom: []
        name: sort
        description: 'Sắp xếp theo title hoặc created_at (thêm tiền tố - để giảm dần).'
        required: false
        example: '-created_at'
        type: string
        enumValues: []
        exampleWasSpecified: true
        nullable: false
        deprecated: false
      include:
        custom: []
        name: include
        description: 'Load thêm relationship. Giá trị hợp lệ: user.'
        required: false
        example: user
        type: string
        enumValues: []
        exampleWasSpecified: true
        nullable: false
        deprecated: false
      'page[number]':
        custom: []
        name: 'page[number]'
        description: 'Số trang.'
        required: false
        example: 1
        type: integer
        enumValues: []
        exampleWasSpecified: true
        nullable: false
        deprecated: false
      'page[size]':
        custom: []
        name: 'page[size]'
        description: 'Số item mỗi trang (mặc định 15).'
        required: false
        example: 15
        type: integer
        enumValues: []
        exampleWasSpecified: true
        nullable: false
        deprecated: false
    cleanQueryParameters:
      'filter[title]': Hello
      'filter[status]': published
      sort: '-created_at'
      include: user
      'page[number]': 1
      'page[size]': 15
    bodyParameters: []
    cleanBodyParameters: []
    fileParameters: []
    responses:
      -
        custom: []
        status: 200
        content: '{"data":[{"uuid":"550e8400-e29b-41d4-a716-446655440000","title":"Hello World","content":"Nội dung demo...","status":"published","user":null,"created_at":"2026-05-16T10:30:00+00:00","updated_at":"2026-05-16T10:30:00+00:00"}],"links":{"first":"http://localhost:8000/api/v1/demos?page=1","last":"http://localhost:8000/api/v1/demos?page=3","prev":null,"next":"http://localhost:8000/api/v1/demos?page=2"},"meta":{"current_page":1,"last_page":3,"per_page":15,"total":25}}'
        headers: []
        description: ''
      -
        custom: []
        status: 401
        content: '{"message":"Unauthenticated."}'
        headers: []
        description: ''
    responseFields: []
    auth:
      - headers
      - Authorization
      - 'Bearer 6g43cv8PD1aE5beadkZfhV6'
    controller: null
    method: null
    route: null
  -
    custom: []
    httpMethods:
      - POST
    uri: api/v1/demos
    metadata:
      custom: []
      groupName: Demo
      groupDescription: ''
      subgroup: ''
      subgroupDescription: ''
      title: 'Tạo demo mới'
      description: 'Tạo một bản ghi Demo mới.'
      authenticated: true
      deprecated: false
    headers:
      Authorization: 'Bearer {YOUR_AUTH_KEY}'
      Content-Type: application/json
      Accept: application/json
    urlParameters: []
    cleanUrlParameters: []
    queryParameters: []
    cleanQueryParameters: []
    bodyParameters:
      title:
        custom: []
        name: title
        description: 'Tiêu đề (tối đa 255 ký tự).'
        required: true
        example: 'Hello World'
        type: string
        enumValues: []
        exampleWasSpecified: true
        nullable: false
        deprecated: false
      content:
        custom: []
        name: content
        description: 'Nội dung chi tiết.'
        required: false
        example: 'Nội dung demo đầu tiên.'
        type: string
        enumValues: []
        exampleWasSpecified: true
        nullable: false
        deprecated: false
      status:
        custom: []
        name: status
        description: 'Trạng thái: draft (mặc định), published, archived.'
        required: false
        example: published
        type: string
        enumValues: []
        exampleWasSpecified: true
        nullable: false
        deprecated: false
      user_id:
        custom: []
        name: user_id
        description: 'ID của user sở hữu demo.'
        required: true
        example: 1
        type: integer
        enumValues: []
        exampleWasSpecified: true
        nullable: false
        deprecated: false
    cleanBodyParameters:
      title: 'Hello World'
      content: 'Nội dung demo đầu tiên.'
      status: published
      user_id: 1
    fileParameters: []
    responses:
      -
        custom: []
        status: 201
        content: '{"data":{"uuid":"550e8400-e29b-41d4-a716-446655440000","title":"Hello World","content":"Nội dung demo đầu tiên.","status":"published","user":null,"created_at":"2026-05-16T10:30:00+00:00","updated_at":"2026-05-16T10:30:00+00:00"}}'
        headers: []
        description: ''
      -
        custom: []
        status: 422
        content: '{"message":"The given data was invalid.","errors":{"title":["The title field is required."],"user_id":["The user id field is required."]}}'
        headers: []
        description: ''
    responseFields: []
    auth:
      - headers
      - Authorization
      - 'Bearer 6g43cv8PD1aE5beadkZfhV6'
    controller: null
    method: null
    route: null
  -
    custom: []
    httpMethods:
      - GET
    uri: 'api/v1/demos/{id}'
    metadata:
      custom: []
      groupName: Demo
      groupDescription: ''
      subgroup: ''
      subgroupDescription: ''
      title: 'Xem chi tiết demo'
      description: 'Trả về thông tin chi tiết của một Demo theo UUID.'
      authenticated: true
      deprecated: false
    headers:
      Authorization: 'Bearer {YOUR_AUTH_KEY}'
      Content-Type: application/json
      Accept: application/json
    urlParameters:
      id:
        custom: []
        name: id
        description: 'The ID of the demo.'
        required: true
        example: architecto
        type: string
        enumValues: []
        exampleWasSpecified: false
        nullable: false
        deprecated: false
      uuid:
        custom: []
        name: uuid
        description: 'UUID của demo.'
        required: true
        example: 550e8400-e29b-41d4-a716-446655440000
        type: string
        enumValues: []
        exampleWasSpecified: true
        nullable: false
        deprecated: false
    cleanUrlParameters:
      id: architecto
      uuid: 550e8400-e29b-41d4-a716-446655440000
    queryParameters:
      include:
        custom: []
        name: include
        description: 'Load thêm relationship. Giá trị hợp lệ: user.'
        required: false
        example: user
        type: string
        enumValues: []
        exampleWasSpecified: true
        nullable: false
        deprecated: false
    cleanQueryParameters:
      include: user
    bodyParameters: []
    cleanBodyParameters: []
    fileParameters: []
    responses:
      -
        custom: []
        status: 200
        content: '{"data":{"uuid":"550e8400-e29b-41d4-a716-446655440000","title":"Hello World","content":"Nội dung demo...","status":"published","user":null,"created_at":"2026-05-16T10:30:00+00:00","updated_at":"2026-05-16T10:30:00+00:00"}}'
        headers: []
        description: ''
      -
        custom: []
        status: 404
        content: '{"message":"Resource not found."}'
        headers: []
        description: ''
    responseFields: []
    auth:
      - headers
      - Authorization
      - 'Bearer 6g43cv8PD1aE5beadkZfhV6'
    controller: null
    method: null
    route: null
  -
    custom: []
    httpMethods:
      - PUT
      - PATCH
    uri: 'api/v1/demos/{id}'
    metadata:
      custom: []
      groupName: Demo
      groupDescription: ''
      subgroup: ''
      subgroupDescription: ''
      title: 'Cập nhật demo'
      description: 'Cập nhật thông tin của một Demo. Hỗ trợ cả PUT (thay toàn bộ) và PATCH (cập nhật một phần).'
      authenticated: true
      deprecated: false
    headers:
      Authorization: 'Bearer {YOUR_AUTH_KEY}'
      Content-Type: application/json
      Accept: application/json
    urlParameters:
      id:
        custom: []
        name: id
        description: 'The ID of the demo.'
        required: true
        example: architecto
        type: string
        enumValues: []
        exampleWasSpecified: false
        nullable: false
        deprecated: false
      uuid:
        custom: []
        name: uuid
        description: 'UUID của demo.'
        required: true
        example: 550e8400-e29b-41d4-a716-446655440000
        type: string
        enumValues: []
        exampleWasSpecified: true
        nullable: false
        deprecated: false
    cleanUrlParameters:
      id: architecto
      uuid: 550e8400-e29b-41d4-a716-446655440000
    queryParameters: []
    cleanQueryParameters: []
    bodyParameters:
      title:
        custom: []
        name: title
        description: 'Tiêu đề mới (tối đa 255 ký tự).'
        required: false
        example: 'Tiêu đề đã sửa'
        type: string
        enumValues: []
        exampleWasSpecified: true
        nullable: false
        deprecated: false
      content:
        custom: []
        name: content
        description: 'Nội dung mới.'
        required: false
        example: 'Nội dung đã cập nhật.'
        type: string
        enumValues: []
        exampleWasSpecified: true
        nullable: false
        deprecated: false
      status:
        custom: []
        name: status
        description: 'Trạng thái mới: draft, published, archived.'
        required: false
        example: archived
        type: string
        enumValues: []
        exampleWasSpecified: true
        nullable: false
        deprecated: false
      user_id:
        custom: []
        name: user_id
        description: 'ID của user sở hữu.'
        required: false
        example: 1
        type: integer
        enumValues: []
        exampleWasSpecified: true
        nullable: false
        deprecated: false
    cleanBodyParameters:
      title: 'Tiêu đề đã sửa'
      content: 'Nội dung đã cập nhật.'
      status: archived
      user_id: 1
    fileParameters: []
    responses:
      -
        custom: []
        status: 200
        content: '{"data":{"uuid":"550e8400-e29b-41d4-a716-446655440000","title":"Tiêu đề đã sửa","content":"Nội dung demo...","status":"archived","user":null,"created_at":"2026-05-16T10:30:00+00:00","updated_at":"2026-05-16T11:00:00+00:00"}}'
        headers: []
        description: ''
      -
        custom: []
        status: 404
        content: '{"message":"Resource not found."}'
        headers: []
        description: ''
    responseFields: []
    auth:
      - headers
      - Authorization
      - 'Bearer 6g43cv8PD1aE5beadkZfhV6'
    controller: null
    method: null
    route: null
  -
    custom: []
    httpMethods:
      - DELETE
    uri: 'api/v1/demos/{id}'
    metadata:
      custom: []
      groupName: Demo
      groupDescription: ''
      subgroup: ''
      subgroupDescription: ''
      title: 'Xóa demo'
      description: |-
        Xóa mềm (soft delete) một Demo. Bản ghi vẫn còn trong cơ sở dữ liệu
        nhưng không còn truy cập được qua API.
      authenticated: true
      deprecated: false
    headers:
      Authorization: 'Bearer {YOUR_AUTH_KEY}'
      Content-Type: application/json
      Accept: application/json
    urlParameters:
      id:
        custom: []
        name: id
        description: 'The ID of the demo.'
        required: true
        example: architecto
        type: string
        enumValues: []
        exampleWasSpecified: false
        nullable: false
        deprecated: false
      uuid:
        custom: []
        name: uuid
        description: 'UUID của demo.'
        required: true
        example: 550e8400-e29b-41d4-a716-446655440000
        type: string
        enumValues: []
        exampleWasSpecified: true
        nullable: false
        deprecated: false
    cleanUrlParameters:
      id: architecto
      uuid: 550e8400-e29b-41d4-a716-446655440000
    queryParameters: []
    cleanQueryParameters: []
    bodyParameters: []
    cleanBodyParameters: []
    fileParameters: []
    responses:
      -
        custom: []
        status: 204
        content: '{}'
        headers: []
        description: ''
      -
        custom: []
        status: 404
        content: '{"message":"Resource not found."}'
        headers: []
        description: ''
    responseFields: []
    auth:
      - headers
      - Authorization
      - 'Bearer 6g43cv8PD1aE5beadkZfhV6'
    controller: null
    method: null
    route: null
